10:18:29 588	瑞芯微开发工具 v2.5.4.0 start run
10:42:36 892	Layer<3-5>:测试设备开始
10:42:36 915	Layer<3-5>:测试设备成功
10:42:36 936	<LAYER 3-5> ERROR:ReadCapability-->RKU_ReadCapability failed,err(-8)
10:42:36 945	Layer<3-5>:校验芯片开始
10:42:36 954	Layer<3-5>:校验芯片成功
10:42:36 964	Layer<3-5>:获取FlashInfo开始
10:42:36 970	<LAYER 3-5> INFO:FlashInfo: 00 00 E9 00 00 04 04 00 28 00 01
10:42:36 978	<LAYER 3-5> INFO:GetFlashInfo-->Emmc storage.
10:42:36 989	Layer<3-5>:获取FlashInfo成功
10:42:36 998	Layer<3-5>:准备IDB开始
10:42:37 006	<LAYER 3-5> INFO:CS(1)		(7456MB)		(SAMSUNG)
10:42:37 034	Layer<3-5>:准备IDB成功
10:42:37 045	Layer<3-5>:下载IDB开始
10:42:37 216	Layer<3-5>:下载IDB成功
10:42:37 224	Layer<3-5>:重启设备开始
10:42:38 231	Layer<3-5>:重启设备成功
10:42:38 238	Layer<3-5>:等待Loader开始
10:42:38 757	Layer<3-5>:等待Loader成功
10:42:38 764	Layer<3-5>:测试设备开始
10:42:38 773	Layer<3-5>:测试设备成功
10:42:38 781	Layer<3-5>:下载固件开始
10:42:38 824	<LAYER 3-5> INFO:FlashInfo: 00 00 E9 00 00 04 04 00 28 00 01
10:42:38 830	<LAYER 3-5> INFO:GetFlashInfo-->Emmc storage.
10:42:38 836	<LAYER 3-5> INFO:Start download image,total=2709825952,band=64,DirectLBA=0,First4Access=0,Gpt=0
10:42:38 877	<LAYER 3-5> INFO:Start to download trust,offset=0x4000,size=4194304
10:42:39 118	<LAYER 3-5> INFO:Start to download uboot,offset=0x2000,size=4194304
10:42:39 368	<LAYER 3-5> INFO:Start to download misc,offset=0x6000,size=49152
10:42:39 387	<LAYER 3-5> INFO:Start to download resource,offset=0x8000,size=254464
10:42:39 410	<LAYER 3-5> INFO:Start to download kernel,offset=0x10000,size=7874380
10:42:39 888	<LAYER 3-5> INFO:Start to download boot,offset=0x20000,size=1383600
10:42:39 984	<LAYER 3-5> INFO:Start to download recovery,offset=0x30000,size=7514220
10:42:40 434	<LAYER 3-5> INFO:Start to download system,offset=0x18a000,size=2147483648
10:43:22 486	<LAYER 3-5> INFO:Start to download vendor,offset=0x592000,size=268435456
10:43:30 981	<LAYER 3-5> INFO:Start to download oem,offset=0x612000,size=268435456
10:43:31 113	Layer<3-5>:下载固件成功
10:43:31 121	Layer<3-5>:重启设备开始
10:43:32 133	Layer<3-5>:重启设备成功
